<?xml version="1.0" encoding="UTF-8"?>
<!DOCTYPE svg PUBLIC "-//W3C//DTD SVG 1.1//EN" "http://www.w3.org/Graphics/SVG/1.1/DTD/svg11.dtd">
<!-- Creator: CorelDRAW X6 -->
<svg xmlns="http://www.w3.org/2000/svg" xml:space="preserve" width="127mm" height="127mm" version="1.1" style="shape-rendering:geometricPrecision; text-rendering:geometricPrecision; image-rendering:optimizeQuality; fill-rule:evenodd; clip-rule:evenodd"
viewBox="0 0 12700 12700"
 xmlns:xlink="http://www.w3.org/1999/xlink">
 <defs>
  <style type="text/css">
   <![CDATA[
    .fil0 {fill:#FEFEFE}
    .fil4 {fill:#121212}
    .fil3 {fill:#131313}
    .fil2 {fill:#141414}
    .fil1 {fill:#D4D4D4}
    .fil5 {fill:white}
   ]]>
  </style>
 </defs>
 <g id="Warstwa_x0020_1">
  <metadata id="CorelCorpID_0Corel-Layer"/>
  <path class="fil0" d="M9682 10775l-5 -1049 793 0 0 192 -575 1 0 242c44,0 386,-16 424,16l-43 48c-46,49 -89,88 -110,122l-13 14 -270 258 -202 158z"/>
  <path class="fil1" d="M8489 9726l218 0c0,192 1,384 0,575 -2,433 441,379 506,148 36,-127 17,-579 17,-724l217 0c0,480 120,1092 -473,1100 -244,3 -424,-130 -468,-325 -38,-171 -18,-567 -18,-775zm-4891 -3067c35,-35 73,-58 107,-95 33,-36 75,-83 117,-93l-1 2825 -218 4 -5 -2641zm1384 1042c38,16 178,148 207,175l1 1409 -205 2 -3 -1585zm3503 -1036c43,-43 76,-61 116,-100 20,-20 29,-33 50,-52l64 -38 1 2824 -188 0c-30,-4 -30,-8 -35,-10 -25,-97 -3,-2421 -7,-2624zm-3502 493l0 -1313c27,-44 9,-17 51,-49 28,-22 26,-28 51,-50 23,-21 78,-63 106,-82l0 1677c-43,-15 -173,-141 -207,-183zm1501 -513l153 -133 42 67c15,28 25,48 40,75 27,51 51,94 74,144l890 1717c24,49 48,92 75,142 27,50 48,104 84,137l0 -5086 220 -8 -1 5596c-267,19 -193,27 -292,-163 -31,-59 -57,-109 -88,-168l-515 -993c-115,-219 -223,-435 -340,-656 -110,-208 -254,-460 -341,-671zm1999 -121l2 -2821 230 -3 0 2628c-3,3 -7,3 -8,8l-51 43c-59,48 -97,110 -173,145zm-4886 -1l2 -2822 220 0 3 2626c-42,43 -60,50 -103,96 -24,26 -86,78 -122,100zm2126 -1332c27,-35 47,-52 74,-74 74,-58 28,-46 92,-70l705 1369c-26,43 -122,121 -167,146l-704 -1371zm-739 -1490l202 -1 510 992c-14,21 -123,123 -160,138l-346 -647 -5 946c-28,50 -66,59 -108,100 -29,28 -23,27 -53,50 -13,10 -38,29 -42,31l2 -1608zm-918 2805l1452 1272c31,31 60,45 90,76l360 317c41,30 58,54 95,84 18,14 27,18 44,33 103,95 219,181 317,283 31,32 60,44 91,75 41,41 60,50 95,84 42,40 53,46 89,77l95 84c43,33 161,125 180,171 18,45 2,169 1,220 -64,-32 -99,-71 -148,-118 -20,-20 -30,-22 -50,-39 -19,-16 -27,-29 -44,-45l-1373 -1195c-200,-155 -376,-342 -570,-503l-672 -581c-27,-27 -15,-22 -45,-45 -21,-16 -33,-21 -52,-38 -46,-43 -42,-50 -96,-83 -5,-225 -46,-229 90,-335 98,-76 185,-177 284,-252l2100 -1835c143,-143 332,-278 479,-415 38,-36 50,-67 97,-68l5 221c-53,19 -286,257 -355,310 -37,28 -53,52 -87,79 -189,147 -364,319 -550,473l-132 123c-20,20 -30,23 -51,40l-278 246c-18,14 -28,19 -44,33l-593 519c-25,20 -21,22 -44,45l-461 396c-95,80 -176,171 -278,245 -17,13 -9,4 -22,16 -27,26 -9,7 -22,32zm5616 4280l0 -9 -5 -1052 793 0 0 192 -575 1 0 242c44,0 386,-16 424,16l94 -3c-4,-3 -11,-8 -31,-16 -7,-3 -23,-7 -27,-9 36,-37 44,-55 85,-95l159 -199c17,-22 25,-31 39,-50l53 -55 10 -21 258 -394c82,-139 156,-269 231,-420 144,-289 275,-610 364,-940 451,-1672 154,-3261 -798,-4655 -45,-66 -90,-123 -136,-183 -32,-41 -41,-52 -74,-92l-147 -173c-217,-267 -669,-670 -951,-863 -431,-294 -767,-479 -1282,-674 -2032,-767 -4383,-181 -5833,1343 -399,420 -755,900 -1053,1553 -766,1677 -606,3648 372,5190 140,221 256,379 417,566l307 345c58,60 109,106 171,161l166 153c203,188 740,540 971,664 1802,964 3889,853 5604,-248l393 -276z"/>
  <path class="fil2" d="M6483 6645c86,211 231,462 341,671 117,221 225,438 340,656l515 993c31,59 57,109 88,168 99,190 25,182 292,163l1 -5596 -220 8 0 5086c-35,-33 -57,-87 -84,-137 -27,-50 -51,-93 -75,-142l-890 -1717c-23,-50 -47,-93 -74,-144 -14,-27 -25,-47 -40,-75l-42 -67 -153 133z"/>
  <path class="fil3" d="M4066 6506c13,-25 -5,-6 22,-32 13,-13 5,-3 22,-16 102,-75 183,-165 278,-245l461 -396c23,-23 20,-25 44,-45l593 -519c16,-14 26,-19 44,-33l278 -246c21,-17 31,-20 51,-40l132 -123c185,-154 361,-326 550,-473 35,-27 50,-51 87,-79 70,-52 302,-290 355,-310l-5 -221c-47,1 -59,33 -97,68 -147,137 -337,273 -479,415l-2100 1835c-100,75 -187,176 -284,252l-89 92c-36,37 -4,101 -1,242 54,33 50,40 96,83 19,17 31,22 52,38 30,23 18,17 45,45l672 581c194,161 370,348 570,503l1373 1195c18,16 25,29 44,45 21,17 30,19 50,39 48,47 83,86 148,118 1,-51 17,-176 -1,-220 -19,-46 -137,-138 -180,-171l-95 -84c-36,-31 -47,-37 -89,-77 -36,-34 -54,-42 -95,-84 -31,-31 -60,-43 -91,-75 -99,-102 -214,-188 -317,-283 -16,-15 -26,-20 -44,-33 -38,-29 -54,-54 -95,-84l-360 -317c-30,-31 -59,-44 -90,-76l-1452 -1272z"/>
  <path class="fil4" d="M8484 6665c5,203 -17,2527 7,2624 5,2 5,6 35,10l188 0 -1 -2824 -64 38c-21,18 -29,32 -50,52l-116 100z"/>
  <path class="fil4" d="M8481 6532l174 -152 51 -43c1,-5 5,-6 8,-8l0 -2628 -230 3 -3 2828z"/>
  <path class="fil4" d="M3596 6524c36,-22 98,-74 122,-100 42,-47 61,-53 103,-96l-3 -2626 -220 0 -2 2822z"/>
  <path class="fil4" d="M3602 9300l218 -4 1 -2825c-42,10 -83,57 -117,93 -34,37 -72,59 -107,95l5 2641z"/>
  <path class="fil5" d="M8489 9726c0,208 -20,604 18,775 44,195 224,328 468,325 593,-8 473,-619 473,-1100l-217 0c0,144 18,597 -17,724 -65,231 -508,285 -506,-148 1,-192 0,-384 0,-575l-218 0z"/>
  <path class="fil3" d="M10691 9749l-1 1051 208 -6 3 -279 170 -161c63,77 114,150 169,227 99,138 121,211 169,212l240 8c-114,-183 -301,-420 -432,-616l406 -457 -249 0c-37,49 -66,87 -117,134 -73,68 -287,349 -357,382l0 -514 -197 0 -10 21z"/>
  <path class="fil3" d="M4981 5309c5,-2 29,-21 42,-31 30,-23 24,-22 53,-50 42,-41 81,-50 108,-100l5 -946 346 647c37,-15 146,-117 160,-138l-510 -992 -202 1 -2 1608z"/>
  <path class="fil3" d="M6426 6562c45,-25 141,-103 167,-146l-705 -1369c-63,24 -17,12 -92,70 -28,22 -48,39 -74,74l704 1371z"/>
  <path class="fil3" d="M4982 7158c34,41 165,167 207,183l0 -1677c-28,19 -84,61 -106,82 -25,23 -23,29 -51,50 -42,32 -23,6 -51,49l0 1313z"/>
  <path class="fil3" d="M4984 9286l205 -2 -1 -1409c-29,-27 -169,-159 -207,-175l3 1585z"/>
  <path class="fil3" d="M9682 10778l0 9c31,28 763,16 807,7l0 -168c-60,-16 -578,-14 -606,-8l-202 161z"/>
  <path class="fil1" d="M9896 10596c45,-36 85,-79 127,-114 45,-39 93,-79 130,-122l-258 -7 1 244z"/>
  <path class="fil3" d="M10412 10172l-94 3c-67,79 -140,136 -160,183l250 -7 4 -179z"/>
 </g>
</svg>
